…
Nakon što smo locirali API izvor, možemo učitati podatke u R pomoću`fromJSON()` funkcije iz **jsonlite** paketa ([vidi!](https://cran.r-project.org/web/packages/jsonlite/index.html)). To će automatski prisiliti JSON *array* (vrsta objetka;slično kao data frame) objekt u data frame. Ovdje ćemo taj data frame pretvoriti u tibble zbog funkcionalnosti koje tibble objekt pruža.


```r
# library(jsonlite) ## već učitano
nyc_trees <- 
  fromJSON("https://data.cityofnewyork.us/resource/nwxe-4ae8.json") %>%
  as_tibble()
nyc_trees
```

```
## # A tibble: 1,000 x 45
##    tree_id block_id created_at      tree_dbh stump_diam curb_loc   status health
##    <chr>   <chr>    <chr>           <chr>    <chr>      <chr>      <chr>  <chr> 
##  1 180683  348711   2015-08-27T00:~ 3        0          OnCurb     Alive  Fair  
##  2 200540  315986   2015-09-03T00:~ 21       0          OnCurb     Alive  Fair  
##  3 204026  218365   2015-09-05T00:~ 3        0          OnCurb     Alive  Good  
##  4 204337  217969   2015-09-05T00:~ 10       0          OnCurb     Alive  Good  
##  5 189565  223043   2015-08-30T00:~ 21       0          OnCurb     Alive  Good  
##  6 190422  106099   2015-08-30T00:~ 11       0          OnCurb     Alive  Good  
##  7 190426  106099   2015-08-30T00:~ 11       0          OnCurb     Alive  Good  
##  8 208649  103940   2015-09-07T00:~ 9        0          OnCurb     Alive  Good  
##  9 209610  407443   2015-09-08T00:~ 6        0          OnCurb     Alive  Good  
## 10 192755  207508   2015-08-31T00:~ 21       0          OffsetFro~ Alive  Fair  
## # ... with 990 more rows, and 37 more variables: spc_latin <chr>,
## #   spc_common <chr>, steward <chr>, guards <chr>, sidewalk <chr>,
## #   user_type <chr>, problems <chr>, root_stone <chr>, root_grate <chr>,
## #   root_other <chr>, trunk_wire <chr>, trnk_light <chr>, trnk_other <chr>,
## #   brch_light <chr>, brch_shoe <chr>, brch_other <chr>, address <chr>,
## #   zipcode <chr>, zip_city <chr>, cb_num <chr>, borocode <chr>,
## #   boroname <chr>, cncldist <chr>, st_assem <chr>, st_senate <chr>, ...
```
…
```r
fred <-
  fred %>% 
  httr::content("text") %>%
  jsonlite::fromJSON() %>%
  purrr::pluck("observations") %>% ## izvuci"$observations" element iz liste
  # .$observations %>% ## Alternativno...
  # magrittr::extract("observations") %>% ## Alternativno...
  as_tibble() ## Zbog formatiranja
fred
```

```
## # A tibble: 92 x 4
##    realtime_start realtime_end date       value   
##    <chr>          <chr>        <chr>      <chr>   
##  1 2021-12-02     2021-12-02   1929-01-01 1120.718
##  2 2021-12-02     2021-12-02   1930-01-01 1025.678
##  3 2021-12-02     2021-12-02   1931-01-01 958.927 
##  4 2021-12-02     2021-12-02   1932-01-01 834.769 
##  5 2021-12-02     2021-12-02   1933-01-01 823.628 
##  6 2021-12-02     2021-12-02   1934-01-01 911.541 
##  7 2021-12-02     2021-12-02   1935-01-01 993.105 
##  8 2021-12-02     2021-12-02   1936-01-01 1119.585
##  9 2021-12-02     2021-12-02   1937-01-01 1178.246
## 10 2021-12-02     2021-12-02   1938-01-01 1139.642
## # ... with 82 more rows
```
…
```
## # A tibble: 110 x 7
##      pos   pts name         abbreviation matches previous_pts previous_pos
##    <int> <dbl> <chr>        <chr>          <int>        <dbl>        <int>
##  1     1  90.6 South Africa RSA              222         90.6            1
##  2     2  88.7 New Zealand  NZL              241         88.7            2
##  3     3  87.8 England      ENG              223         87.8            3
##  4     4  86.5 Ireland      IRE              215         86.5            4
##  5     5  85.5 France       FRA              219         85.5            5
##  6     6  83.9 Australia    AUS              247         83.9            6
##  7     7  83.1 Scotland     SCO              208         83.1            7
##  8     8  81.6 Wales        WAL              234         81.6            8
##  9     9  80.6 Argentina    ARG              202         80.6            9
## 10    10  78.3 Japan        JPN              179         78.3           10
## # ... with 100 more rows
```
…
U zadnjem koraku je potrebno provesti iteraciju (i.e. loop) na vektoru `dates` (datuma), na način da se vrijednosti iz vektora sekvencijalno unesu u `rugby_scrape` funkciju. Mnogo je načina za provesti iteraciju u R, a ovdje ćemo koristiti `lapply()` funkciju.^[Fokusirajte se na širu sliku!.] Potom ćemo sve povezati u jedan data frame koristeći `dplyr::bind_rows()` funkciju i taj objekt nazvati `rankings_history`.


```r
rankings_history <-
  lapply(dates, rugby_scrape) %>% ## Izvrši iteraciju
  bind_rows() ## Poveži list-u data frame-ova u jedan data frame
rankings_history
```

```
## # A tibble: 1,779 x 8
##    date         pos   pts name    abbreviation matches previous_pts previous_pos
##    <date>     <int> <dbl> <chr>   <chr>          <int>        <dbl>        <int>
##  1 2003-12-29     1  94.0 England ENG               17         92.1            1
##  2 2003-12-29     2  90.1 New Ze~ NZL               17         88.2            3
##  3 2003-12-29     3  86.6 Austra~ AUS               17         88.4            2
##  4 2003-12-29     4  82.7 France  FRA               17         84.7            4
##  5 2003-12-29     5  81.2 South ~ RSA               15         81.2            5
##  6 2003-12-29     6  80.5 Ireland IRE               15         80.5            6
##  7 2003-12-29     7  78.0 Argent~ ARG               14         78.0            7
##  8 2003-12-29     8  76.9 Wales   WAL               15         76.9            8
##  9 2003-12-29     9  76.4 Scotla~ SCO               15         76.4            9
## 10 2003-12-29    10  73.5 Samoa   SAM               14         73.5           10
## # ... with 1,769 more rows
```
…
